<svg xmlns="http://www.w3.org/2000/svg" width="986" height="986" viewBox="0 0 986 986">
<path d="M60 856.55h799.8c33.1 0 60-26.9 60-60v-135.4H632.7c-21.5 0-42.5-4.2-62.2-12.6-19-8-36.1-19.6-50.7-34.2-14.6-14.6-26.2-31.7-34.2-50.7-8.3-19.7-12.6-40.7-12.6-62.2v-16.9c0-21.5 4.2-42.5 12.6-62.2 8-19 19.6-36.1 34.2-50.7 14.6-14.6 31.7-26.2 50.7-34.2 19.7-8.3 40.7-12.6 62.2-12.6h287.1v-135.4c0-33.1-26.9-60-60-60H60c-33.1 0-60 26.9-60 60v607.1c0 33.1 26.9 60 60 60z"/><path d="M986 429.85c0-24.9-20.1-45-45-45H632.7c-55.1 0-99.7 44.6-99.7 99.7v16.9c0 55.1 44.6 99.7 99.7 99.7H941c24.9 0 45-20.1 45-45v-126.3zm-337 116.1c-29.3 0-53-23.7-53-53s23.7-53 53-53 53 23.7 53 53-23.7 53-53 53z"/>
</svg>
